[
  {
    "index": 1,
    "fortune": "A closed mouth gathers no feet."
  },
  {
    "index": 2,
    "fortune": "A conclusion is simply the place where you got tired of thinking."
  }, {
    "index": 3,
    "fortune": "The fortune you seek is in another fortune."
},
{
    "index": 4,
    "fortune": "A cynic is only a frustrated optimist."
},
{
    "index": 5,
    "fortune": "A foolish man listens to his heart. A wise man listens to cookies."
},
{
    "index": 6,
    "fortune": "Flattery will go far tonight."
},
{
    "index": 7,
    "fortune": "A fanatic is one who can't change his mind, and won't change the subject."
},
{
    "index": 8,
    "fortune": "If you look back, you'll soon be going that way."
},
{
    "index": 9,
    "fortune": "You will live long enough to open many fortune cookies."
},
{
    "index": 10,
    "fortune": "An alien of some sort will be appearing to you shortly."
},
{
    "index": 11,
    "fortune": "Do not mistake temptation for opportunity."
},
{
    "index": 12,
    "fortune": "He who laughs at himself never runs out of things to laugh at."
},
{
    "index": 13,
    "fortune": "He who laughs last is laughing at you."
},
{
    "index": 14,
    "fortune": "He who throws dirt is losing ground."
},
{
    "index": 15,
    "fortune": "Some men dream of fortunes, others dream of cookies."
},
{
    "index": 16,
    "fortune": "The greatest danger could be your stupidity."
},
{
    "index": 17,
    "fortune": "We don't know the future, but here's a cookie."
},
{
    "index": 18,
    "fortune": "The world may be your oyster, but it doesn't mean you'll get its pearl."
},
{
    "index": 19,
    "fortune": "You will be hungry again in one hour."
},
{
    "index": 20,
    "fortune": "The road to riches is paved with homework."
},
{
    "index": 21,
    "fortune": "You can always find happiness at work on Friday."
},
{
    "index": 22,
    "fortune": "Actions speak louder than fortune cookies."
},
{
    "index": 23,
    "fortune": "Because of your melodic nature, the moonlight never misses an appointment."
},
{
    "index": 24,
    "fortune": "Don't behave with cold manners."
},
{
    "index": 25,
    "fortune": "Don't forget you are always on our minds."
},
{
    "index": 26,
    "fortune": "A conclusion is simply the place where you got tired of thinking."
},
{
    "index": 27,
    "fortune": "Fortune not found? Abort, Retry, Ignore."
},
{
    "index": 28,
    "fortune": "Help! I am being held prisoner in a fortune cookie factory."
},
{
    "index": 29,
    "fortune": "Never forget a friend. Especially if he owes you."
},
{
    "index": 30,
    "fortune": "Never wear your best pants when you go to fight for freedom."
},
{
    "index": 31,
    "fortune": "It is a good day to have a good day."
},
{
    "index": 32,
    "fortune": "Someone will invite you to a Karaoke party."
},
{
    "index": 33,
    "fortune": "That wasn't chicken."
},
{
    "index": 34,
    "fortune": "There is no mistake so great as that of being always right."
},
{
    "index": 35,
    "fortune": "You love Chinese food."
},
{
    "index": 36,
    "fortune": "No snowflake feels responsible in an avalanche."
},
{
    "index": 37,
    "fortune": "You are not illiterate."
},
{
    "index": 38,
    "fortune": "Hard work pays off in the future. Laziness pays off now."
},
{
    "index": 39,
    "fortune": "You think it's a secret, but they know."
},
{
    "index": 40,
    "fortune": "You cannot love life until you live the life you love."
},
{
    "index": 41,
    "fortune": "You already know the answer to the questions lingering inside your head."
},
{
    "index": 42,
    "fortune": "A short stranger will soon enter your life with blessings to share."
},
{
    "index": 43,
    "fortune": "Nothing astonishes men so much as common sense and plain dealing."
},
{
    "index": 44,
    "fortune": "Its amazing how much good you can do if you dont care who gets the credit."
},
{
    "index": 45,
    "fortune": "Stay true to those who would do the same for you."
},
{
    "index": 46,
    "fortune": "Stay true to those who would do the same for you."
},{
    "index": 47,
    "fortune": "Wise sayings often fall on barren ground, but a kind word is never thrown away."
},{
    "index": 48,
    "fortune": "Conquer your fears or they will conquer you."
},{
    "index": 49,
    "fortune": "A single conversation with a wise man is better than ten years of study."
},{
    "index": 50,
    "fortune": "Express yourself: Don't hold back!"
},{
    "index": 51,
    "fortune": "Remember, licking door knobs is illegal on other planets."
},{
    "index": 52,
    "fortune": "You should give me a fortune..."
},{
    "index": 53,
    "fortune": "Sometimes we just have to go deep inside ourselves to solve our problems."
},{
    "index": 54,
    "fortune": "A bubble bath always helps!"
},{
    "index": 55,
    "fortune": "You will forget to do something today."
},{
    "index": 56,
    "fortune": "Buy it!"
},{
    "index": 57,
    "fortune": "Don't look back..."
},{
    "index": 58,
    "fortune": "Follow your dreams, even if others don't want you too."
},{
    "index": 59,
    "fortune": "You will find a lucky item today."
},{
    "index": 60,
    "fortune": "A friend needs your help."
},{
    "index": 61,
    "fortune": "A dog will cross your path"
},{
    "index": 62,
    "fortune": "You are the writer of your own destiny"
},{
    "index": 63,
    "fortune": "You will be reminded of childhood memories later today"
},{
    "index": 64,
    "fortune": "Go to a restaurant today, treat yourself"
},{
    "index": 65,
    "fortune": "A promotion is coming your way!"
},{
    "index": 66,
    "fortune": "To be or not to be, that is the question."
},{
    "index": 67,
    "fortune": "Try something new today and you will find it worth your time."
},{
    "index": 68,
    "fortune": "A weird message is heading your way."
},{
    "index": 69,
    "fortune": "I can't say much...but don't look out the window..."
},{
    "index": 70,
    "fortune": "Two wrongs don't make a right."
},{
    "index": 71,
    "fortune": "Let your creativity shine today!"
},{
    "index": 72,
    "fortune": "Watch out for yellow today."
},{
    "index": 73,
    "fortune": "Don't give up!"
},{
    "index": 74,
    "fortune": "Don't trade a dollar for 4 quarters."
},{
    "index": 75,
    "fortune": "You will need a notebook today."
},{
    "index": 76,
    "fortune": "Carry a feather for good luck today."
},{
    "index": 77,
    "fortune": "Never stop a fortune half way, it woul"
},{
    "index": 78,
    "fortune": "fi ouy nac daer siht neht doog boj!"
},{
    "index": 79,
    "fortune": "01101000-01100101-01101100-01110000 01101101-01100101..."
},{
    "index": 80,
    "fortune": "A lost treasure will soon appear to you."
},{
    "index": 81,
    "fortune": "Don't send that message."
},{
    "index": 82,
    "fortune": "run"
},{
    "index": 83,
    "fortune": "Shhhh, they are listening..."
},{
    "index": 84,
    "fortune": "Go find your own fortune!"
},{
    "index": 85,
    "fortune": "Why am I here?"
},{
    "index": 86,
    "fortune": "The fortune after this one is lying to you."
},{
    "index": 87,
    "fortune": "Visit some old friends, they want to see you."
},{
    "index": 88,
    "fortune": "Prolate Spheroid"
},{
    "index": 89,
    "fortune": "I see you"
},{
    "index": 90,
    "fortune": "Don't eat anything orange today."
},{
    "index": 91,
    "fortune": "A bright color will catch your attention"
},{
    "index": 92,
    "fortune": "Today will have an unexpected end."
},{
    "index": 93,
    "fortune": "Don't forget to take your keys with you."
},{
    "index": 94,
    "fortune": "Eat plenty of fruits today. It will help you later on"
},{
    "index": 95,
    "fortune": "I forgot what I was going to say..."
},{
    "index": 96,
    "fortune": "A new friend will make their way into your life."
},{
    "index": 97,
    "fortune": "What is today but yesterday's tomorrow?"
},{
    "index": 98,
    "fortune": "Start from scratch. You will do much better now."
},{
    "index": 99,
    "fortune": "Ask a friend to borrow a pencil. Their reaction will tell you more..."
},{
    "index": 100,
    "fortune": "You will have an amazing day today!"
}
]